{"count":59,"pageIndex":1,"pageSize":25,"pageCount":3,"items":[{"$ref":"http://sports.core.api.espn.com/v2/sports/football/leagues/nfl/seasons/2025/awards/480?lang=en&region=us"},{"$ref":"http://sports.core.api.espn.com/v2/sports/football/leagues/nfl/seasons/2024/awards/480?lang=en&region=us"},{"$ref":"http://sports.core.api.espn.com/v2/sports/football/leagues/nfl/seasons/2023/awards/480?lang=en&region=us"},{"$ref":"http://sports.core.api.espn.com/v2/sports/football/leagues/nfl/seasons/2022/awards/480?lang=en&region=us"},{"$ref":"http://sports.core.api.espn.com/v2/sports/football/leagues/nfl/seasons/2021/awards/480?lang=en&region=us"},{"$ref":"http://sports.core.api.espn.com/v2/sports/football/leagues/nfl/seasons/2020/awards/480?lang=en&region=us"},{"$ref":"http://sports.core.api.espn.com/v2/sports/football/leagues/nfl/seasons/2019/awards/480?lang=en&region=us"},{"$ref":"http://sports.core.api.espn.com/v2/sports/football/leagues/nfl/seasons/2018/awards/480?lang=en&region=us"},{"$ref":"http://sports.core.api.espn.com/v2/sports/football/leagues/nfl/seasons/2017/awards/480?lang=en&region=us"},{"$ref":"http://sports.core.api.espn.com/v2/sports/football/leagues/nfl/seasons/2016/awards/480?lang=en&region=us"},{"$ref":"http://sports.core.api.espn.com/v2/sports/football/leagues/nfl/seasons/2015/awards/480?lang=en&region=us"},{"$ref":"http://sports.core.api.espn.com/v2/sports/football/leagues/nfl/seasons/2014/awards/480?lang=en&region=us"},{"$ref":"http://sports.core.api.espn.com/v2/sports/football/leagues/nfl/seasons/2013/awards/480?lang=en&region=us"},{"$ref":"http://sports.core.api.espn.com/v2/sports/football/leagues/nfl/seasons/2012/awards/480?lang=en&region=us"},{"$ref":"http://sports.core.api.espn.com/v2/sports/football/leagues/nfl/seasons/2011/awards/480?lang=en&region=us"},{"$ref":"http://sports.core.api.espn.com/v2/sports/football/leagues/nfl/seasons/2010/awards/480?lang=en&region=us"},{"$ref":"http://sports.core.api.espn.com/v2/sports/football/leagues/nfl/seasons/2009/awards/480?lang=en&region=us"},{"$ref":"http://sports.core.api.espn.com/v2/sports/football/leagues/nfl/seasons/2008/awards/480?lang=en&region=us"},{"$ref":"http://sports.core.api.espn.com/v2/sports/football/leagues/nfl/seasons/2007/awards/480?lang=en&region=us"},{"$ref":"http://sports.core.api.espn.com/v2/sports/football/leagues/nfl/seasons/2006/awards/480?lang=en&region=us"},{"$ref":"http://sports.core.api.espn.com/v2/sports/football/leagues/nfl/seasons/2005/awards/480?lang=en&region=us"},{"$ref":"http://sports.core.api.espn.com/v2/sports/football/leagues/nfl/seasons/2004/awards/480?lang=en&region=us"},{"$ref":"http://sports.core.api.espn.com/v2/sports/football/leagues/nfl/seasons/2003/awards/480?lang=en&region=us"},{"$ref":"http://sports.core.api.espn.com/v2/sports/football/leagues/nfl/seasons/2002/awards/480?lang=en&region=us"},{"$ref":"http://sports.core.api.espn.com/v2/sports/football/leagues/nfl/seasons/2001/awards/480?lang=en&region=us"}]}